{
    "type": "service_account",
    "project_id": "moga-ac6db",
    "private_key_id": "e490d4d2410d4fc69bed98948cf6773c2f8fc0ba",
    "private_key": "-----BEGIN PRIVATE KEY-----\nMIIEvgIBADANBgkqhkiG9w0BAQEFAASCBKgwggSkAgEAAoIBAQCpsJvIhnhN0b7s\nXOyQ2m7vOTteoOsXAbl35zRzs5xBe5b111V5JyMynHGtfrTwtTWaJlz/YyM0e2PB\nFT7S1QioRAuEl7rrxrP0TISzD/SHu6z3/gk2jMOlKmmtXfFWBIjCr5X1b3d1XorS\nD1aee/iaAebdyXOe6Uyqg42Zuf1cYoVPkWP2vU5SnMld6lUCDY/OowRDZd6NsTaz\nCegdJTXg1ngROfmL/blRj5JiNA/Q8UwY/4AGcqQh09HjQz3+izQ805MzoaKw8vAL\nuk+SifDUOLJDw9hy9XT/rxYqB/PyOIK0hJYb9OCOh4UF+oWtgGxvkdq7p3xWFOMt\nQzND78eNAgMBAAECggEAAVwoP3jubWc9Mb1D6xxJD9NEWcuN3ssVfrPEbJn3qmGw\ncct2RKiO5GizE4okrpoxMglVLPnRLipAACvoqz1oWprjAb7KkXmv9wkG9j1uPwk+\nx2UKk1yY89Gtc6WBWehi5TaNi+BHE5J8p9bWIaKKOUfDHytuaQtjISm5QI5oTK19\nHU9AiBgTLiKJOkPu4UcFiXqjxvBjtSDJ5qxCDrTf3DZ4HqXwqm3v2ZOZEFaTtMJJ\nzcgxDPgEaG0BtpYXo9w6BzdeaWzRmPIkOiGd7gYnQiJDTa0dsOQMv1pFAgjNpd4b\nFgrk5hHCJiXe5rAct1NwRouly3A0kFx7Qck9df1UgQKBgQDe/ObJVY0bfcIbFmkF\nS2eavQUBvCPjCRLvRKCI3u4bToZa+WustGIdpMXtJJF+BNzsUTZi5T4A1pNTw+ZZ\nd8USD7urqSLYy3j+Bbm9d3Xzl8Mreoyd8l5B7RSXAVCd1GQTpTqiMA62uzr7Y7QE\nil2uGAUGJyyjfSrsh6Qh4CObgQKBgQDCz78HorhpUQhRh2V1oIUmLDcrEJ6i7UlW\nb+sGzK/xd3fLpGNJna48gY65nszUKWq7nlwke/LHY2tQoNveVdtEcWC01NTNLdvT\nbcUUacAkkxTuwD0FIU+bqiwr6VN0frI3q0ModIjYHKQfHHswYg4aGbB8zvdfk84A\nwG3X41niDQKBgGZLnNBGJ/qxoYdtq3YbVocdKZvXJJt1wTL0x7SimJb8WhSIEcZj\n5hL1UTtuKDSopHTg+NM7mUsnJOUrnJP0pvqXLyAb8nmENphKJiBuGjVKrOVYTgPz\neRxDV8vCdapCEjsU9KYM5+MaV3+WCLKAi2Nfb4aYGBlURYnG3BwSSCOBAoGBALUH\n4qgQ0TelAorovCLrsO/BJN8TCaezw3PcetYNve4wq5UExPMy4Sf+6QebBxKdDj8d\nMNkCiaA5xg7d/JOGy0S16zz/jmTAmcfG+N44S0Jxn4EiCVJMGzM3luaTY2cdGTXc\nI4Njj4rsSqNSjzNt21brynKgzYX2zvcp2qlE71C9AoGBAKsAR9tvEIWrVjnLdLdu\njH1bG7tbJT3gpIG4UHs2z6hvBI+RlTEGm/L43QRGpLwyXDmgW6S8KqgELT+HfTvZ\nI+q6QVfFmm/ySxfTu4/1LB2odJll76SBRN/NzCtizOPaDIyQqcJY/jlXPpsMNmAh\nslmjy1VrTsmmEjnwOBvbt7P/\n-----END PRIVATE KEY-----\n",
    "client_email": "firebase-adminsdk-7hmej@moga-ac6db.iam.gserviceaccount.com",
    "client_id": "115516380217157913106",
    "auth_uri": "https://accounts.google.com/o/oauth2/auth",
    "token_uri": "https://oauth2.googleapis.com/token",
    "auth_provider_x509_cert_url": "https://www.googleapis.com/oauth2/v1/certs",
    "client_x509_cert_url": "https://www.googleapis.com/robot/v1/metadata/x509/firebase-adminsdk-7hmej%40moga-ac6db.iam.gserviceaccount.com"
  }
  